^C:\USERS\PASST\DOCUMENTS\VISUAL STUDIO 2017\PROJECTS\SIV3D(AUGUST2016V2)1\SIV3D(AUGUST2016V2)1\RELEASE\ANIMATION.OBJ|C:\USERS\PASST\DOCUMENTS\VISUAL STUDIO 2017\PROJECTS\SIV3D(AUGUST2016V2)1\SIV3D(AUGUST2016V2)1\RELEASE\BGCHARA.OBJ|C:\USERS\PASST\DOCUMENTS\VISUAL STUDIO 2017\PROJECTS\SIV3D(AUGUST2016V2)1\SIV3D(AUGUST2016V2)1\RELEASE\CHARAAI.OBJ|C:\USERS\PASST\DOCUMENTS\VISUAL STUDIO 2017\PROJECTS\SIV3D(AUGUST2016V2)1\SIV3D(AUGUST2016V2)1\RELEASE\CHARACTERATTRIBUTE.OBJ|C:\USERS\PASST\DOCUMENTS\VISUAL STUDIO 2017\PROJECTS\SIV3D(AUGUST2016V2)1\SIV3D(AUGUST2016V2)1\RELEASE\CHARACTERDATAS.OBJ|C:\USERS\PASST\DOCUMENTS\VISUAL STUDIO 2017\PROJECTS\SIV3D(AUGUST2016V2)1\SIV3D(AUGUST2016V2)1\RELEASE\CHARAPARAM.OBJ|C:\USERS\PASST\DOCUMENTS\VISUAL STUDIO 2017\PROJECTS\SIV3D(AUGUST2016V2)1\SIV3D(AUGUST2016V2)1\RELEASE\DEBUGPRINT.OBJ|C:\USERS\PASST\DOCUMENTS\VISUAL STUDIO 2017\PROJECTS\SIV3D(AUGUST2016V2)1\SIV3D(AUGUST2016V2)1\RELEASE\EFFECTMEMORY.OBJ|C:\USERS\PASST\DOCUMENTS\VISUAL STUDIO 2017\PROJECTS\SIV3D(AUGUST2016V2)1\SIV3D(AUGUST2016V2)1\RELEASE\FADE.OBJ|C:\USERS\PASST\DOCUMENTS\VISUAL STUDIO 2017\PROJECTS\SIV3D(AUGUST2016V2)1\SIV3D(AUGUST2016V2)1\RELEASE\GAME.OBJ|C:\USERS\PASST\DOCUMENTS\VISUAL STUDIO 2017\PROJECTS\SIV3D(AUGUST2016V2)1\SIV3D(AUGUST2016V2)1\RELEASE\GAMEMETHOD.OBJ|C:\USERS\PASST\DOCUMENTS\VISUAL STUDIO 2017\PROJECTS\SIV3D(AUGUST2016V2)1\SIV3D(AUGUST2016V2)1\RELEASE\GAMESCENEMANAGER.OBJ|C:\USERS\PASST\DOCUMENTS\VISUAL STUDIO 2017\PROJECTS\SIV3D(AUGUST2016V2)1\SIV3D(AUGUST2016V2)1\RELEASE\GAMESOUND.OBJ|C:\USERS\PASST\DOCUMENTS\VISUAL STUDIO 2017\PROJECTS\SIV3D(AUGUST2016V2)1\SIV3D(AUGUST2016V2)1\RELEASE\GIMICATTRIBUTE.OBJ|C:\USERS\PASST\DOCUMENTS\VISUAL STUDIO 2017\PROJECTS\SIV3D(AUGUST2016V2)1\SIV3D(AUGUST2016V2)1\RELEASE\GIMICDATAS.OBJ|C:\USERS\PASST\DOCUMENTS\VISUAL STUDIO 2017\PROJECTS\SIV3D(AUGUST2016V2)1\SIV3D(AUGUST2016V2)1\RELEASE\LUNCH.OBJ|C:\USERS\PASST\DOCUMENTS\VISUAL STUDIO 2017\PROJECTS\SIV3D(AUGUST2016V2)1\SIV3D(AUGUST2016V2)1\RELEASE\MAIN.OBJ|C:\USERS\PASST\DOCUMENTS\VISUAL STUDIO 2017\PROJECTS\SIV3D(AUGUST2016V2)1\SIV3D(AUGUST2016V2)1\RELEASE\PLAYERMEMORY.OBJ|C:\USERS\PASST\DOCUMENTS\VISUAL STUDIO 2017\PROJECTS\SIV3D(AUGUST2016V2)1\SIV3D(AUGUST2016V2)1\RELEASE\PLAYER_ANIMCONTROL.OBJ|C:\USERS\PASST\DOCUMENTS\VISUAL STUDIO 2017\PROJECTS\SIV3D(AUGUST2016V2)1\SIV3D(AUGUST2016V2)1\RELEASE\PLAYER_CONTROL.OBJ|C:\USERS\PASST\DOCUMENTS\VISUAL STUDIO 2017\PROJECTS\SIV3D(AUGUST2016V2)1\SIV3D(AUGUST2016V2)1\RELEASE\RESOURCE.RES|C:\USERS\PASST\DOCUMENTS\VISUAL STUDIO 2017\PROJECTS\SIV3D(AUGUST2016V2)1\SIV3D(AUGUST2016V2)1\RELEASE\SCORE.OBJ|C:\USERS\PASST\DOCUMENTS\VISUAL STUDIO 2017\PROJECTS\SIV3D(AUGUST2016V2)1\SIV3D(AUGUST2016V2)1\RELEASE\SS5PLAYER.OBJ|C:\USERS\PASST\DOCUMENTS\VISUAL STUDIO 2017\PROJECTS\SIV3D(AUGUST2016V2)1\SIV3D(AUGUST2016V2)1\RELEASE\SS5PLAYERPLATFORM.OBJ|C:\USERS\PASST\DOCUMENTS\VISUAL STUDIO 2017\PROJECTS\SIV3D(AUGUST2016V2)1\SIV3D(AUGUST2016V2)1\RELEASE\SSPLAYER_EFFECT.OBJ|C:\USERS\PASST\DOCUMENTS\VISUAL STUDIO 2017\PROJECTS\SIV3D(AUGUST2016V2)1\SIV3D(AUGUST2016V2)1\RELEASE\SSPLAYER_EFFECT2.OBJ|C:\USERS\PASST\DOCUMENTS\VISUAL STUDIO 2017\PROJECTS\SIV3D(AUGUST2016V2)1\SIV3D(AUGUST2016V2)1\RELEASE\SSPLAYER_EFFECTFUNCTION.OBJ|C:\USERS\PASST\DOCUMENTS\VISUAL STUDIO 2017\PROJECTS\SIV3D(AUGUST2016V2)1\SIV3D(AUGUST2016V2)1\RELEASE\SSPLAYER_MATRIX.OBJ|C:\USERS\PASST\DOCUMENTS\VISUAL STUDIO 2017\PROJECTS\SIV3D(AUGUST2016V2)1\SIV3D(AUGUST2016V2)1\RELEASE\SSPLAYER_PARTSTATE.OBJ|C:\USERS\PASST\DOCUMENTS\VISUAL STUDIO 2017\PROJECTS\SIV3D(AUGUST2016V2)1\SIV3D(AUGUST2016V2)1\RELEASE\TITLE.OBJ|C:\USERS\PASST\DOCUMENTS\VISUAL STUDIO 2017\PROJECTS\SIV3D(AUGUST2016V2)1\SIV3D(AUGUST2016V2)1\RELEASE\TUTORIAL.OBJ|C:\USERS\PASST\DOCUMENTS\VISUAL STUDIO 2017\PROJECTS\SIV3D(AUGUST2016V2)1\SIV3D(AUGUST2016V2)1\RELEASE\UISPRITE.OBJ
C:\PROGRAM FILES (X86)\MICROSOFT VISUAL STUDIO 14.0\VC\BIN\VCTIP.EXE
C:\WINDOWS\SYSTEM32\TZRES.DLL
C:\WINDOWS\GLOBALIZATION\SORTING\SORTDEFAULT.NLS
C:\PROGRAM FILES (X86)\WINDOWS KITS\8.1\LIB\WINV6.3\UM\X86\KERNEL32.LIB
C:\PROGRAM FILES (X86)\WINDOWS KITS\8.1\LIB\WINV6.3\UM\X86\USER32.LIB
C:\PROGRAM FILES (X86)\WINDOWS KITS\8.1\LIB\WINV6.3\UM\X86\GDI32.LIB
C:\PROGRAM FILES (X86)\WINDOWS KITS\8.1\LIB\WINV6.3\UM\X86\WINSPOOL.LIB
C:\PROGRAM FILES (X86)\WINDOWS KITS\8.1\LIB\WINV6.3\UM\X86\COMDLG32.LIB
C:\PROGRAM FILES (X86)\WINDOWS KITS\8.1\LIB\WINV6.3\UM\X86\ADVAPI32.LIB
C:\PROGRAM FILES (X86)\WINDOWS KITS\8.1\LIB\WINV6.3\UM\X86\SHELL32.LIB
C:\PROGRAM FILES (X86)\WINDOWS KITS\8.1\LIB\WINV6.3\UM\X86\OLE32.LIB
C:\PROGRAM FILES (X86)\WINDOWS KITS\8.1\LIB\WINV6.3\UM\X86\OLEAUT32.LIB
C:\PROGRAM FILES (X86)\WINDOWS KITS\8.1\LIB\WINV6.3\UM\X86\UUID.LIB
C:\PROGRAM FILES (X86)\WINDOWS KITS\8.1\LIB\WINV6.3\UM\X86\ODBC32.LIB
C:\PROGRAM FILES (X86)\WINDOWS KITS\8.1\LIB\WINV6.3\UM\X86\ODBCCP32.LIB
C:\USERS\PASST\DOCUMENTS\VISUAL STUDIO 2017\PROJECTS\SIV3D(AUGUST2016V2)1\SIV3D(AUGUST2016V2)1\RELEASE\RESOURCE.RES
C:\USERS\PASST\DOCUMENTS\VISUAL STUDIO 2017\PROJECTS\SIV3D(AUGUST2016V2)1\SIV3D(AUGUST2016V2)1\RELEASE\ANIMATION.OBJ
C:\USERS\PASST\DOCUMENTS\VISUAL STUDIO 2017\PROJECTS\SIV3D(AUGUST2016V2)1\SIV3D(AUGUST2016V2)1\RELEASE\BGCHARA.OBJ
C:\USERS\PASST\DOCUMENTS\VISUAL STUDIO 2017\PROJECTS\SIV3D(AUGUST2016V2)1\SIV3D(AUGUST2016V2)1\RELEASE\CHARAAI.OBJ
C:\USERS\PASST\DOCUMENTS\VISUAL STUDIO 2017\PROJECTS\SIV3D(AUGUST2016V2)1\SIV3D(AUGUST2016V2)1\RELEASE\CHARACTERDATAS.OBJ
C:\USERS\PASST\DOCUMENTS\VISUAL STUDIO 2017\PROJECTS\SIV3D(AUGUST2016V2)1\SIV3D(AUGUST2016V2)1\RELEASE\CHARACTERATTRIBUTE.OBJ
C:\USERS\PASST\DOCUMENTS\VISUAL STUDIO 2017\PROJECTS\SIV3D(AUGUST2016V2)1\SIV3D(AUGUST2016V2)1\RELEASE\CHARAPARAM.OBJ
C:\USERS\PASST\DOCUMENTS\VISUAL STUDIO 2017\PROJECTS\SIV3D(AUGUST2016V2)1\SIV3D(AUGUST2016V2)1\RELEASE\EFFECTMEMORY.OBJ
C:\USERS\PASST\DOCUMENTS\VISUAL STUDIO 2017\PROJECTS\SIV3D(AUGUST2016V2)1\SIV3D(AUGUST2016V2)1\RELEASE\FADE.OBJ
C:\USERS\PASST\DOCUMENTS\VISUAL STUDIO 2017\PROJECTS\SIV3D(AUGUST2016V2)1\SIV3D(AUGUST2016V2)1\RELEASE\GAME.OBJ
C:\USERS\PASST\DOCUMENTS\VISUAL STUDIO 2017\PROJECTS\SIV3D(AUGUST2016V2)1\SIV3D(AUGUST2016V2)1\RELEASE\GAMEMETHOD.OBJ
C:\USERS\PASST\DOCUMENTS\VISUAL STUDIO 2017\PROJECTS\SIV3D(AUGUST2016V2)1\SIV3D(AUGUST2016V2)1\RELEASE\GAMESOUND.OBJ
C:\USERS\PASST\DOCUMENTS\VISUAL STUDIO 2017\PROJECTS\SIV3D(AUGUST2016V2)1\SIV3D(AUGUST2016V2)1\RELEASE\GAMESCENEMANAGER.OBJ
C:\USERS\PASST\DOCUMENTS\VISUAL STUDIO 2017\PROJECTS\SIV3D(AUGUST2016V2)1\SIV3D(AUGUST2016V2)1\RELEASE\PLAYERMEMORY.OBJ
C:\USERS\PASST\DOCUMENTS\VISUAL STUDIO 2017\PROJECTS\SIV3D(AUGUST2016V2)1\SIV3D(AUGUST2016V2)1\RELEASE\GIMICATTRIBUTE.OBJ
C:\USERS\PASST\DOCUMENTS\VISUAL STUDIO 2017\PROJECTS\SIV3D(AUGUST2016V2)1\SIV3D(AUGUST2016V2)1\RELEASE\GIMICDATAS.OBJ
C:\USERS\PASST\DOCUMENTS\VISUAL STUDIO 2017\PROJECTS\SIV3D(AUGUST2016V2)1\SIV3D(AUGUST2016V2)1\RELEASE\LUNCH.OBJ
C:\USERS\PASST\DOCUMENTS\VISUAL STUDIO 2017\PROJECTS\SIV3D(AUGUST2016V2)1\SIV3D(AUGUST2016V2)1\RELEASE\MAIN.OBJ
C:\USERS\PASST\DOCUMENTS\VISUAL STUDIO 2017\PROJECTS\SIV3D(AUGUST2016V2)1\SIV3D(AUGUST2016V2)1\RELEASE\PLAYER_ANIMCONTROL.OBJ
C:\USERS\PASST\DOCUMENTS\VISUAL STUDIO 2017\PROJECTS\SIV3D(AUGUST2016V2)1\SIV3D(AUGUST2016V2)1\RELEASE\PLAYER_CONTROL.OBJ
C:\USERS\PASST\DOCUMENTS\VISUAL STUDIO 2017\PROJECTS\SIV3D(AUGUST2016V2)1\SIV3D(AUGUST2016V2)1\RELEASE\SCORE.OBJ
C:\USERS\PASST\DOCUMENTS\VISUAL STUDIO 2017\PROJECTS\SIV3D(AUGUST2016V2)1\SIV3D(AUGUST2016V2)1\RELEASE\SSPLAYER_EFFECT.OBJ
C:\USERS\PASST\DOCUMENTS\VISUAL STUDIO 2017\PROJECTS\SIV3D(AUGUST2016V2)1\SIV3D(AUGUST2016V2)1\RELEASE\SSPLAYER_EFFECT2.OBJ
C:\USERS\PASST\DOCUMENTS\VISUAL STUDIO 2017\PROJECTS\SIV3D(AUGUST2016V2)1\SIV3D(AUGUST2016V2)1\RELEASE\SSPLAYER_EFFECTFUNCTION.OBJ
C:\USERS\PASST\DOCUMENTS\VISUAL STUDIO 2017\PROJECTS\SIV3D(AUGUST2016V2)1\SIV3D(AUGUST2016V2)1\RELEASE\SSPLAYER_MATRIX.OBJ
C:\USERS\PASST\DOCUMENTS\VISUAL STUDIO 2017\PROJECTS\SIV3D(AUGUST2016V2)1\SIV3D(AUGUST2016V2)1\RELEASE\SSPLAYER_PARTSTATE.OBJ
C:\USERS\PASST\DOCUMENTS\VISUAL STUDIO 2017\PROJECTS\SIV3D(AUGUST2016V2)1\SIV3D(AUGUST2016V2)1\RELEASE\DEBUGPRINT.OBJ
C:\USERS\PASST\DOCUMENTS\VISUAL STUDIO 2017\PROJECTS\SIV3D(AUGUST2016V2)1\SIV3D(AUGUST2016V2)1\RELEASE\SS5PLAYER.OBJ
C:\USERS\PASST\DOCUMENTS\VISUAL STUDIO 2017\PROJECTS\SIV3D(AUGUST2016V2)1\SIV3D(AUGUST2016V2)1\RELEASE\SS5PLAYERPLATFORM.OBJ
C:\USERS\PASST\DOCUMENTS\VISUAL STUDIO 2017\PROJECTS\SIV3D(AUGUST2016V2)1\SIV3D(AUGUST2016V2)1\RELEASE\TITLE.OBJ
C:\USERS\PASST\DOCUMENTS\VISUAL STUDIO 2017\PROJECTS\SIV3D(AUGUST2016V2)1\SIV3D(AUGUST2016V2)1\RELEASE\TUTORIAL.OBJ
C:\USERS\PASST\DOCUMENTS\VISUAL STUDIO 2017\PROJECTS\SIV3D(AUGUST2016V2)1\SIV3D(AUGUST2016V2)1\RELEASE\UISPRITE.OBJ
C:\PROGRAM FILES (X86)\MICROSOFT VISUAL STUDIO 14.0\VC\BIN\C2.DLL
C:\PROGRAM FILES (X86)\SIV3D(AUGUST2016V2)\LIB\X86\SIV3D.LIB
C:\PROGRAM FILES (X86)\SIV3D(AUGUST2016V2)\LIB\X86\ZLIB\ZLIB.LIB
C:\PROGRAM FILES (X86)\SIV3D(AUGUST2016V2)\LIB\X86\LIBPNG\LIBPNG16.LIB
C:\PROGRAM FILES (X86)\SIV3D(AUGUST2016V2)\LIB\X86\LIBJPEG-TURBO\TURBOJPEG-STATIC.LIB
C:\PROGRAM FILES (X86)\SIV3D(AUGUST2016V2)\LIB\X86\OPENJPEG\OPENJPEG.LIB
C:\PROGRAM FILES (X86)\SIV3D(AUGUST2016V2)\LIB\X86\LIBWEBP\LIBWEBP.LIB
C:\PROGRAM FILES (X86)\SIV3D(AUGUST2016V2)\LIB\X86\LIBTIFF\TIFF.LIB
C:\PROGRAM FILES (X86)\SIV3D(AUGUST2016V2)\LIB\X86\OPENCV\OPENCV_CORE300.LIB
C:\PROGRAM FILES (X86)\SIV3D(AUGUST2016V2)\LIB\X86\OPENCV\OPENCV_HAL300.LIB
C:\PROGRAM FILES (X86)\SIV3D(AUGUST2016V2)\LIB\X86\OPENCV\OPENCV_IMGPROC300.LIB
C:\PROGRAM FILES (X86)\SIV3D(AUGUST2016V2)\LIB\X86\OPENCV\OPENCV_OBJDETECT300.LIB
C:\PROGRAM FILES (X86)\SIV3D(AUGUST2016V2)\LIB\X86\OPENCV\OPENCV_IMGCODECS300.LIB
C:\PROGRAM FILES (X86)\SIV3D(AUGUST2016V2)\LIB\X86\OPENCV\OPENCV_VIDEOIO300.LIB
C:\PROGRAM FILES (X86)\SIV3D(AUGUST2016V2)\LIB\X86\OPENCV\OPENCV_PHOTO300.LIB
C:\PROGRAM FILES (X86)\SIV3D(AUGUST2016V2)\LIB\X86\OPENCV\OPENCV_CALIB3D300.LIB
C:\PROGRAM FILES (X86)\SIV3D(AUGUST2016V2)\LIB\X86\LIBOGG\LIBOGG_STATIC.LIB
C:\PROGRAM FILES (X86)\SIV3D(AUGUST2016V2)\LIB\X86\LIBVORBIS\LIBVORBIS_STATIC.LIB
C:\PROGRAM FILES (X86)\SIV3D(AUGUST2016V2)\LIB\X86\LIBVORBIS\LIBVORBISFILE_STATIC.LIB
C:\PROGRAM FILES (X86)\SIV3D(AUGUST2016V2)\LIB\X86\LIBOPUS\OPUS.LIB
C:\PROGRAM FILES (X86)\SIV3D(AUGUST2016V2)\LIB\X86\LIBOPUS\CELT.LIB
C:\PROGRAM FILES (X86)\SIV3D(AUGUST2016V2)\LIB\X86\LIBOPUS\SILK_COMMON.LIB
C:\PROGRAM FILES (X86)\SIV3D(AUGUST2016V2)\LIB\X86\LIBOPUS\SILK_FLOAT.LIB
C:\PROGRAM FILES (X86)\WINDOWS KITS\8.1\LIB\WINV6.3\UM\X86\WINMM.LIB
C:\PROGRAM FILES (X86)\WINDOWS KITS\8.1\LIB\WINV6.3\UM\X86\IPHLPAPI.LIB
C:\PROGRAM FILES (X86)\WINDOWS KITS\8.1\LIB\WINV6.3\UM\X86\GDIPLUS.LIB
C:\PROGRAM FILES (X86)\WINDOWS KITS\8.1\LIB\WINV6.3\UM\X86\SHLWAPI.LIB
C:\PROGRAM FILES (X86)\WINDOWS KITS\8.1\LIB\WINV6.3\UM\X86\VFW32.LIB
C:\PROGRAM FILES (X86)\WINDOWS KITS\8.1\LIB\WINV6.3\UM\X86\WS2_32.LIB
C:\PROGRAM FILES (X86)\WINDOWS KITS\8.1\LIB\WINV6.3\UM\X86\WININET.LIB
C:\PROGRAM FILES (X86)\WINDOWS KITS\8.1\LIB\WINV6.3\UM\X86\WINHTTP.LIB
C:\PROGRAM FILES (X86)\WINDOWS KITS\8.1\LIB\WINV6.3\UM\X86\IMM32.LIB
C:\PROGRAM FILES (X86)\WINDOWS KITS\8.1\LIB\WINV6.3\UM\X86\STRMIIDS.LIB
C:\PROGRAM FILES (X86)\WINDOWS KITS\8.1\LIB\WINV6.3\UM\X86\SETUPAPI.LIB
C:\PROGRAM FILES (X86)\MICROSOFT VISUAL STUDIO 14.0\VC\LIB\LIBCPMT.LIB
C:\PROGRAM FILES (X86)\MICROSOFT VISUAL STUDIO 14.0\VC\LIB\LIBCMT.LIB
C:\PROGRAM FILES (X86)\MICROSOFT VISUAL STUDIO 14.0\VC\LIB\OLDNAMES.LIB
C:\PROGRAM FILES (X86)\WINDOWS KITS\8.1\LIB\WINV6.3\UM\X86\SAPI.LIB
C:\PROGRAM FILES (X86)\MICROSOFT VISUAL STUDIO 14.0\VC\LIB\LIBCONCRT.LIB
C:\PROGRAM FILES (X86)\MICROSOFT VISUAL STUDIO 14.0\VC\LIB\LIBVCRUNTIME.LIB
C:\PROGRAM FILES (X86)\WINDOWS KITS\10\LIB\10.0.10240.0\UCRT\X86\LIBUCRT.LIB
C:\PROGRAM FILES (X86)\MICROSOFT VISUAL STUDIO 14.0\VC\BIN\1041\LINKUI.DLL
C:\PROGRAM FILES (X86)\WINDOWS KITS\8.1\BIN\X86\RC.EXE
C:\PROGRAM FILES (X86)\MICROSOFT VISUAL STUDIO 14.0\VC\BIN\CVTRES.EXE
C:\PROGRAM FILES (X86)\MICROSOFT VISUAL STUDIO 14.0\VC\BIN\MSPDBSRV.EXE
