^C:\USERS\PASST\DOCUMENTS\VISUAL STUDIO 2017\PROJECTS\SIV3D(AUGUST2016V2)1\SIV3D(AUGUST2016V2)1\RESOURCE.RC
C:\USERS\PASST\DOCUMENTS\VISUAL STUDIO 2017\PROJECTS\SIV3D(AUGUST2016V2)1\SIV3D(AUGUST2016V2)1\ENGINE\LOGMESSAGES.TXT
C:\USERS\PASST\DOCUMENTS\VISUAL STUDIO 2017\PROJECTS\SIV3D(AUGUST2016V2)1\SIV3D(AUGUST2016V2)1\ENGINE\ASSETS\ENGINE_TEXTURES.S3A
C:\USERS\PASST\DOCUMENTS\VISUAL STUDIO 2017\PROJECTS\SIV3D(AUGUST2016V2)1\SIV3D(AUGUST2016V2)1\ENGINE\FONTS\UMEPLUS-P-GOTHIC.ZIP
C:\USERS\PASST\DOCUMENTS\VISUAL STUDIO 2017\PROJECTS\SIV3D(AUGUST2016V2)1\SIV3D(AUGUST2016V2)1\ENGINE\FONTS\MPLUS-1P-MEDIUM.ZIP
C:\USERS\PASST\DOCUMENTS\VISUAL STUDIO 2017\PROJECTS\SIV3D(AUGUST2016V2)1\SIV3D(AUGUST2016V2)1\ENGINE\SHADERS\D3D11\SPRITE.VS
C:\USERS\PASST\DOCUMENTS\VISUAL STUDIO 2017\PROJECTS\SIV3D(AUGUST2016V2)1\SIV3D(AUGUST2016V2)1\ENGINE\SHADERS\D3D11\FULLSCREENTRIANGLE.VS
C:\USERS\PASST\DOCUMENTS\VISUAL STUDIO 2017\PROJECTS\SIV3D(AUGUST2016V2)1\SIV3D(AUGUST2016V2)1\ENGINE\SHADERS\D3D11\DEFERREDMESH.VS
C:\USERS\PASST\DOCUMENTS\VISUAL STUDIO 2017\PROJECTS\SIV3D(AUGUST2016V2)1\SIV3D(AUGUST2016V2)1\ENGINE\SHADERS\D3D11\DEFERREDMESH_SHADOW.VS
C:\USERS\PASST\DOCUMENTS\VISUAL STUDIO 2017\PROJECTS\SIV3D(AUGUST2016V2)1\SIV3D(AUGUST2016V2)1\ENGINE\SHADERS\D3D11\LIGHTACCUMULATION.VS
C:\USERS\PASST\DOCUMENTS\VISUAL STUDIO 2017\PROJECTS\SIV3D(AUGUST2016V2)1\SIV3D(AUGUST2016V2)1\ENGINE\SHADERS\D3D11\FORWARDMESH.VS
C:\USERS\PASST\DOCUMENTS\VISUAL STUDIO 2017\PROJECTS\SIV3D(AUGUST2016V2)1\SIV3D(AUGUST2016V2)1\ENGINE\SHADERS\D3D11\FORWARDPARTICLE.VS
C:\USERS\PASST\DOCUMENTS\VISUAL STUDIO 2017\PROJECTS\SIV3D(AUGUST2016V2)1\SIV3D(AUGUST2016V2)1\ENGINE\SHADERS\D3D11\FORWARDLINE3D.VS
C:\USERS\PASST\DOCUMENTS\VISUAL STUDIO 2017\PROJECTS\SIV3D(AUGUST2016V2)1\SIV3D(AUGUST2016V2)1\ENGINE\SHADERS\D3D11\SHAPE.PS
C:\USERS\PASST\DOCUMENTS\VISUAL STUDIO 2017\PROJECTS\SIV3D(AUGUST2016V2)1\SIV3D(AUGUST2016V2)1\ENGINE\SHADERS\D3D11\SHAPE_STENCIL.PS
C:\USERS\PASST\DOCUMENTS\VISUAL STUDIO 2017\PROJECTS\SIV3D(AUGUST2016V2)1\SIV3D(AUGUST2016V2)1\ENGINE\SHADERS\D3D11\SPRITE.PS
C:\USERS\PASST\DOCUMENTS\VISUAL STUDIO 2017\PROJECTS\SIV3D(AUGUST2016V2)1\SIV3D(AUGUST2016V2)1\ENGINE\SHADERS\D3D11\SPRITE_STENCIL.PS
C:\USERS\PASST\DOCUMENTS\VISUAL STUDIO 2017\PROJECTS\SIV3D(AUGUST2016V2)1\SIV3D(AUGUST2016V2)1\ENGINE\SHADERS\D3D11\SPRITE_FONT.PS
C:\USERS\PASST\DOCUMENTS\VISUAL STUDIO 2017\PROJECTS\SIV3D(AUGUST2016V2)1\SIV3D(AUGUST2016V2)1\ENGINE\SHADERS\D3D11\FULLSCREENTRIANGLE1XMSAA.PS
C:\USERS\PASST\DOCUMENTS\VISUAL STUDIO 2017\PROJECTS\SIV3D(AUGUST2016V2)1\SIV3D(AUGUST2016V2)1\ENGINE\SHADERS\D3D11\FULLSCREENTRIANGLE2XMSAA.PS
C:\USERS\PASST\DOCUMENTS\VISUAL STUDIO 2017\PROJECTS\SIV3D(AUGUST2016V2)1\SIV3D(AUGUST2016V2)1\ENGINE\SHADERS\D3D11\FULLSCREENTRIANGLE4XMSAA.PS
C:\USERS\PASST\DOCUMENTS\VISUAL STUDIO 2017\PROJECTS\SIV3D(AUGUST2016V2)1\SIV3D(AUGUST2016V2)1\ENGINE\SHADERS\D3D11\FULLSCREENTRIANGLE1XMSAA_LINEAR.PS
C:\USERS\PASST\DOCUMENTS\VISUAL STUDIO 2017\PROJECTS\SIV3D(AUGUST2016V2)1\SIV3D(AUGUST2016V2)1\ENGINE\SHADERS\D3D11\FULLSCREENTRIANGLE2XMSAA_LINEAR.PS
C:\USERS\PASST\DOCUMENTS\VISUAL STUDIO 2017\PROJECTS\SIV3D(AUGUST2016V2)1\SIV3D(AUGUST2016V2)1\ENGINE\SHADERS\D3D11\FULLSCREENTRIANGLE4XMSAA_LINEAR.PS
C:\USERS\PASST\DOCUMENTS\VISUAL STUDIO 2017\PROJECTS\SIV3D(AUGUST2016V2)1\SIV3D(AUGUST2016V2)1\ENGINE\SHADERS\D3D11\DEFERREDMESH.PS
C:\USERS\PASST\DOCUMENTS\VISUAL STUDIO 2017\PROJECTS\SIV3D(AUGUST2016V2)1\SIV3D(AUGUST2016V2)1\ENGINE\SHADERS\D3D11\DEFERREDMESH_TEXTURED.PS
C:\USERS\PASST\DOCUMENTS\VISUAL STUDIO 2017\PROJECTS\SIV3D(AUGUST2016V2)1\SIV3D(AUGUST2016V2)1\ENGINE\SHADERS\D3D11\DEFERREDMESH_SHADOW.PS
C:\USERS\PASST\DOCUMENTS\VISUAL STUDIO 2017\PROJECTS\SIV3D(AUGUST2016V2)1\SIV3D(AUGUST2016V2)1\ENGINE\SHADERS\D3D11\LIGHTACCUMULATION_NOFOG.PS
C:\USERS\PASST\DOCUMENTS\VISUAL STUDIO 2017\PROJECTS\SIV3D(AUGUST2016V2)1\SIV3D(AUGUST2016V2)1\ENGINE\SHADERS\D3D11\LIGHTACCUMULATION_LINEARFOG.PS
C:\USERS\PASST\DOCUMENTS\VISUAL STUDIO 2017\PROJECTS\SIV3D(AUGUST2016V2)1\SIV3D(AUGUST2016V2)1\ENGINE\SHADERS\D3D11\LIGHTACCUMULATION_EXPONENTIALFOG.PS
C:\USERS\PASST\DOCUMENTS\VISUAL STUDIO 2017\PROJECTS\SIV3D(AUGUST2016V2)1\SIV3D(AUGUST2016V2)1\ENGINE\SHADERS\D3D11\LIGHTACCUMULATION_SQUAREDEXPONENTIALFOG.PS
C:\USERS\PASST\DOCUMENTS\VISUAL STUDIO 2017\PROJECTS\SIV3D(AUGUST2016V2)1\SIV3D(AUGUST2016V2)1\ENGINE\SHADERS\D3D11\LIGHTACCUMULATION_HEIGHTFOG.PS
C:\USERS\PASST\DOCUMENTS\VISUAL STUDIO 2017\PROJECTS\SIV3D(AUGUST2016V2)1\SIV3D(AUGUST2016V2)1\ENGINE\SHADERS\D3D11\DEFERREDFINALIZE.PS
C:\USERS\PASST\DOCUMENTS\VISUAL STUDIO 2017\PROJECTS\SIV3D(AUGUST2016V2)1\SIV3D(AUGUST2016V2)1\ENGINE\SHADERS\D3D11\FORWARDMESH.PS
C:\USERS\PASST\DOCUMENTS\VISUAL STUDIO 2017\PROJECTS\SIV3D(AUGUST2016V2)1\SIV3D(AUGUST2016V2)1\ENGINE\SHADERS\D3D11\FORWARDMESH_TEXTURED.PS
C:\USERS\PASST\DOCUMENTS\VISUAL STUDIO 2017\PROJECTS\SIV3D(AUGUST2016V2)1\SIV3D(AUGUST2016V2)1\ENGINE\SHADERS\D3D11\FORWARDLINE3D.PS
C:\USERS\PASST\DOCUMENTS\VISUAL STUDIO 2017\PROJECTS\SIV3D(AUGUST2016V2)1\SIV3D(AUGUST2016V2)1\ENGINE\SHADERS\D3D11\FXAA_NONE.PS
C:\USERS\PASST\DOCUMENTS\VISUAL STUDIO 2017\PROJECTS\SIV3D(AUGUST2016V2)1\SIV3D(AUGUST2016V2)1\ENGINE\SHADERS\D3D11\FXAA_Q20.PS
C:\USERS\PASST\DOCUMENTS\VISUAL STUDIO 2017\PROJECTS\SIV3D(AUGUST2016V2)1\SIV3D(AUGUST2016V2)1\ENGINE\SHADERS\D3D11\FXAA_Q25.PS
C:\USERS\PASST\DOCUMENTS\VISUAL STUDIO 2017\PROJECTS\SIV3D(AUGUST2016V2)1\SIV3D(AUGUST2016V2)1\ENGINE\SHADERS\D3D11\FXAA_Q39.PS
C:\USERS\PASST\DOCUMENTS\VISUAL STUDIO 2017\PROJECTS\SIV3D(AUGUST2016V2)1\SIV3D(AUGUST2016V2)1\ENGINE\OBJDETECT\FACEPHOTO.ZIP
C:\USERS\PASST\DOCUMENTS\VISUAL STUDIO 2017\PROJECTS\SIV3D(AUGUST2016V2)1\SIV3D(AUGUST2016V2)1\ENGINE\OBJDETECT\FACEANIME.ZIP
C:\USERS\PASST\DOCUMENTS\VISUAL STUDIO 2017\PROJECTS\SIV3D(AUGUST2016V2)1\SIV3D(AUGUST2016V2)1\ENGINE\FONTS\MPLUS-1P-THIN.ZIP
C:\USERS\PASST\DOCUMENTS\VISUAL STUDIO 2017\PROJECTS\SIV3D(AUGUST2016V2)1\SIV3D(AUGUST2016V2)1\ENGINE\FONTS\MPLUS-1P-LIGHT.ZIP
C:\USERS\PASST\DOCUMENTS\VISUAL STUDIO 2017\PROJECTS\SIV3D(AUGUST2016V2)1\SIV3D(AUGUST2016V2)1\ENGINE\FONTS\MPLUS-1P-REGULAR.ZIP
C:\USERS\PASST\DOCUMENTS\VISUAL STUDIO 2017\PROJECTS\SIV3D(AUGUST2016V2)1\SIV3D(AUGUST2016V2)1\ENGINE\FONTS\MPLUS-1P-BOLD.ZIP
C:\USERS\PASST\DOCUMENTS\VISUAL STUDIO 2017\PROJECTS\SIV3D(AUGUST2016V2)1\SIV3D(AUGUST2016V2)1\ENGINE\FONTS\MPLUS-1P-HEAVY.ZIP
C:\USERS\PASST\DOCUMENTS\VISUAL STUDIO 2017\PROJECTS\SIV3D(AUGUST2016V2)1\SIV3D(AUGUST2016V2)1\ENGINE\FONTS\MPLUS-1P-BLACK.ZIP
C:\USERS\PASST\DOCUMENTS\VISUAL STUDIO 2017\PROJECTS\SIV3D(AUGUST2016V2)1\SIV3D(AUGUST2016V2)1\ICON.ICO
C:\USERS\PASST\DOCUMENTS\VISUAL STUDIO 2017\PROJECTS\SIV3D(AUGUST2016V2)1\SIV3D(AUGUST2016V2)1\ENGINE\SPLASH.PNG
